     100 files     158 text files.
classified 158 filesDuplicate file check 158 files (157 known unique)Unique:      100 files                                               158 unique files.                              
Counting:  100      81 files ignored.

http://cloc.sourceforge.net v 1.60  T=0.62 s (212.5 files/s, 76058.4 lines/s)
--------------------------------------------------------------------------------
Language                      files          blank        comment           code
--------------------------------------------------------------------------------
C                                32           2609           2135          19574
C++                              19           1086           2012           6198
C/C++ Header                     39           1165           2038           3818
HTML                              1            729              0           3524
XML                               4              0              0           1153
D                                28            203              0            307
Bourne Again Shell                5             40             70            270
Perl                              1             14              0            126
make                              2             42             85             35
DOS Batch                         1              0              0              2
--------------------------------------------------------------------------------
SUM:                            132           5888           6340          35007
--------------------------------------------------------------------------------
